1;MATCH (x)=[:P74636308/:P59561600]=>(y) , (y)=[ :P13305537+/:P92580544+]=> (:Entity{id:’40324616’}) RETURN DISTINCT x
2;MATCH (?x)=[:P87552847/:P59561600]=>(?y) , (?y)=[:P13305537+/:P92580544+]=>(1930288) RETURN DISTINCT ?x
3;MATCH (?x)=[:P96018683/:P59561600]=>(?y) , (?y)=[ :P13305537+/:P92580544+]=> (7748076) RETURN DISTINCT ?x
4;MATCH (?x)=[:P59561600]=>(?y) , (?y)=[ :P13305537+/:P92580544+]=> (57917422) RETURN DISTINCT ?x
5;MATCH (?x)=[:P16029933/:P59561600]=>(?y) , (?y)=[ :P13305537+/:P92580544+]=> (12720666) RETURN DISTINCT ?x
6;MATCH (?x)=[:P97082496/:P59561600]=>(?y) , (?y)=[ :P13305537+/:P92580544+]=> (69431293) RETURN DISTINCT ?x
7;MATCH (?x)=[:P55714983/:P59561600]=>(?y) , (?y)=[ :P13305537+/:P92580544+]=> (42262378) RETURN DISTINCT ?x
8;MATCH (?x)=[ :P13305537+/:P92580544+]=>(57917422) RETURN DISTINCT ?x
9;MATCH (?x)=[(:P7753141/^:P7753141)+]=> (99436162) RETURN DISTINCT ?x