Q1,"?x <- ?x <isMarriedTo>/<livesIn>/<isLocatedIn>+/<dealsWith>+ <Argentina>"
Q2,"?x <- ?x <hasChild>/<livesIn>/<isLocatedIn>+/<dealsWith>+ <Japan>"
Q3,"?x <- ?x <influences>/<livesIn>/<isLocatedIn>+/<dealsWith>+ <Sweden>"
Q4,"?x <- ?x <livesIn>/<isLocatedIn>+/<dealsWith>+ <United_States>"
Q5,"?x <- ?x <hasSuccessor>/<livesIn>/<isLocatedIn>+/<dealsWith>+ <India>"
Q6,"?x <- ?x <hasPredecessor>/<livesIn>/<isLocatedIn>+/<dealsWith>+ <Germany>"
Q7,"?x <- ?x <hasAcademicAdvisor>/<livesIn>/<isLocatedIn>+/<dealsWith>+ <Netherlands>"
Q8,"?x <- ?x <isLocatedIn>+/<dealsWith>+ <United_States>"
Q9,"?x <- ?x (<actedIn>/-<actedIn>)+ <Kevin_Bacon>"
Q10,"?area <- <wikicategory_Capitals_in_Europe> -rdf:type/(<isLocatedIn>+/<dealsWith>|<dealsWith>) ?area"
Q11,"?person <- ?person <isMarriedTo>+/<owns>/<isLocatedIn>+|<owns>/<isLocatedIn>+ <United_States>"
Q12,"?a, ?b <- ?a <isLocatedIn>+/<dealsWith> ?b"
Q13,"?a, ?b <- ?a <isLocatedIn>+/<dealsWith>+ ?b"
Q14,"?a, ?b, ?c <- ?a <wasBornIn>/<isLocatedIn>+ ?b, ?b <isConnectedTo>+ ?c"
Q15,"?a, ?b, ?c <- ?a (<isLocatedIn>|<isConnectedTo>)+ ?b, ?c <wasBornIn> ?a"
Q16,"?a, ?c <- ?a <wasBornIn>/<isLocatedIn>+ <Japan>, ?a rdf:type/rdfs:subClassOf ?c"
Q17,"?a <- ?a <isLocatedIn>+/(<isConnectedTo>|<dealsWith>)+ <Japan>"
Q18,"?a, ?c <- ?a <isLocatedIn>+ <Japan>, ?a <isConnectedTo>+ ?c"
Q19,”?a <- ?a <isLocatedIn>+/<isLocatedIn> <Japan>"
Q20,”?a <- ?a <isLocatedIn>+/<isConnectedTo>+/<dealsWith>+ <Japan>"