1,MATCH (x)-[:P74636308]->()-[:P59561600]->()-[:P13305537*1..]->()-[:P92580544*1..]->(:Entity{id:'40324616'}) RETURN DISTINCT x
2,MATCH (x)-[:P87552847]->()-[:P59561600]->()-[:P13305537*1..]->()-[:P92580544*1..]->(:Entity{id:'1930288'}) RETURN DISTINCT x
3,MATCH (x)-[:P96018683]->()-[:P59561600]->()-[:P13305537*1..]->()-[:P92580544*1..]->(:Entity{id:'7748076'}) RETURN DISTINCT x
4,MATCH (x)-[:P59561600]->()-[:P13305537*1..]->()-[:P92580544*1..]->(:Entity{id:'57917422'}) RETURN DISTINCT x
5,MATCH (x)-[:P16029933]->()-[:P59561600]->()-[:P13305537*1..]->()-[:P92580544*1..]->(:Entity{id:'12720666'}) RETURN DISTINCT x
6,MATCH (x)-[:P97082496]->()-[:P59561600]->()-[:P13305537*1..]->()-[:P92580544*1..]->(:Entity{id:'69431293'}) RETURN DISTINCT x
7,MATCH (x)-[:P55714983]->()-[:P59561600]->()-[:P13305537*1..]->()-[:P92580544*1..]->(:Entity{id:'42262378'}) RETURN DISTINCT x
8,MATCH (x)-[:P13305537*1..]->()-[:P92580544*1..]->(:Entity{id:'57917422'}) RETURN DISTINCT x