id,src,trg
8826099,37069988,22577207
14471945,69907854,57917422
22903336,17669760,50143678
71031453,17669760,57917422
24322432,69907854,50143678
39712289,42262378,69431293
16739939,69431293,42262378
21637661,21587902,57917422
92261835,21587902,50143678
85451635,66900168,89091146
17445533,70571400,50143678
46381633,90513329,57917422
53247998,85626035,1930288
6003868,90513329,50143678
44396291,11642027,91145258
88879404,915398,3990179
108481,40765470,88425896
42024609,96064857,1930288
44776550,70950707,94380318
22269990,66900168,39965026
24772418,23394108,38135070
63058503,84584975,15675208
86273506,22577207,69431293
55261531,69431293,22577207
92187936,89979866,6689800
67822781,22577207,42262378
39496699,42262378,22577207
12394025,58369901,1930288
38388426,915398,57917422
29553992,2244699,41467956
60526899,12829035,40324616
96202993,31506828,6990451
6787165,83543881,12720666
87118360,14184799,15675208
46383406,53880077,1930288
62338814,66900168,69431293
81782484,53848093,38643996
36872445,90362966,84584975
1787071,11642027,3836390
48942686,22577207,39965026
82110719,39965026,22577207
6934505,57037822,27450463
11638655,3836390,50143678
31527692,64978894,42262378
66061406,52329606,92489367
92089931,56612525,14760116
4760883,3245821,34530340
67104724,56896684,48765152
47639197,39965026,69431293
30683478,3530534,50143678
51150547,66900168,22577207
41519193,3530534,57917422
67257930,26156064,14558736
68392635,83543881,69431293
85517136,39871004,96597993
769903,7176063,50143678
16045647,37087486,48765152
67360535,21616721,46506354
95015128,64978894,22577207
83663573,96393881,15675208
63414024,39965026,42262378
36544932,15675208,13170202
62522746,13170202,15675208
19966105,64978894,12720666
97898791,20569419,96597993
53233454,7748076,42262378
40367039,13101414,15675208
91431544,31506828,96597993
8137149,2244699,22577207
7147919,89979866,15675208
34527047,53880077,82470622
62562731,31213960,51305259
75891585,62658140,34530340
10896347,7748076,69431293
25991218,827516,94380318
68532187,87117668,34530340
12406844,7748076,22577207
13898826,31269035,94380318
65713248,91451236,14760116
49172872,2244699,69431293
80092252,58259842,3990179
63497746,69675,96597993
3470612,58259842,57917422
56482149,15675208,6689800
21492399,6689800,15675208
14799049,58259842,50143678
46697870,31213960,94380318
44273037,38643996,6689800
31810735,23667446,22030736
31389981,58259842,90513329
73437655,99163983,57917422
47477884,41467956,22577207
74121766,20321220,915398
81780838,13101414,14184799
556172,39871004,69675
2661688,69675,39871004
94877069,11744320,48765152
34761856,80673272,24879491
49139546,64372963,95812891
60618605,96393881,6689800
58169969,23394108,97510926
22501702,13170202,6689800
53388466,92207521,88502421
54502799,99613788,89140688
21438890,41467956,42262378
58876433,81867495,95812891
92795700,5031776,57917422
46273815,27450463,12720666
19546786,20321220,57917422
77562588,76642427,34530340
47178598,13101414,88191995
90618095,5031776,50143678
81579561,38135070,97510926
3092268,14184799,6689800
18377281,40325386,15675208
48084162,20321220,3990179
17754835,90362966,13101414
22348901,66624109,96597993
40277667,41467956,69431293
8805545,69431293,41467956
76229100,2784206,6689800
60517856,92951591,15675208
45273569,31269035,6689800
92620238,7748076,96597993
75488322,85626035,12720666
48503971,96064857,69431293
78205414,69675,22577207
37255543,31506828,69431293
89545605,60129317,42262378
99413765,53880077,39965026
48934902,58369901,69431293
83043723,63688720,51305259
16646533,86028910,94380318
88692783,7748076,1256367
95351567,11621956,50143678
72635660,11621956,50143678
31190733,58259842,14760116
5200426,5031776,23179923
16065701,20569419,69431293
72063794,11621956,57917422
16416986,58193590,827516
92579608,26225449,37129062
8656460,37129062,26225449
85907301,20569419,12720666
29531082,2784206,89979866
46735956,89979866,2784206
18471884,58369901,12720666
805265,86517758,12720666
35410182,69675,42262378
11327315,58369901,22577207
38373472,7748076,27766045
47510055,99163983,83892699
52701725,85626035,69431293
66225092,99163983,33301007
93547123,69675,69431293
4236188,260539,1930288
35539701,20321220,14760116
67029655,32720503,6689800
96168850,21616721,95812891
78111074,95812891,57917422
36204242,17669760,95812891
16479486,99613788,24446168
88505728,83543881,1930288
39979995,20321220,68565037
94392456,14184799,94380318
9956051,94380318,14184799
91844319,66624109,69431293
23115372,26225449,6689800
86666319,88502421,6689800
55747018,3245821,24446168
21785404,70950707,14184799
86855163,70571400,77493246
5305876,1930288,12596090
46797896,86517758,83543881
70825083,14184799,92489367
22567802,77493246,57917422
81873011,11744320,17669760
79175260,53880077,69431293
84952531,69675,12596090
28798371,1256367,42262378
17950531,42262378,1256367
77650879,64372963,50143678
70318210,56896684,3836390
21984776,64372963,57917422
46347243,31506828,7748076
65851090,83892699,50143678
2791235,83892699,50143678
31312535,92951591,89979866
26057393,260539,96597993
73164336,68565037,915398
52007486,915398,68565037
7724910,3245821,71808386
88616779,70950707,6689800
66698215,58193590,94380318
17302072,42262378,96597993
14406090,37377607,15675208
92281683,63688720,31213960
75366171,53880077,41467956
53974551,1256367,69431293
23466855,69431293,1256367
16816430,86028910,827516
40074342,17669760,81867495
29388661,81867495,17669760
29636133,92951591,6689800
9472250,21587902,14760116
74062323,22577207,1256367
72234637,1256367,22577207
81332733,13101414,92489367
91829372,37069988,96597993
82694495,57037822,1930288
87538974,81867495,50143678
79608848,90513329,14760116
92797742,11642027,14760116
30633830,81867495,57917422
86327077,70571400,26156064
34593077,57037822,85626035
25190303,26225449,90362966
2499576,90362966,26225449
37669952,48765152,50143678
98014320,14760116,57917422
59082321,74984903,74348889
70474032,14760116,50143678
96571380,48765152,57917422
68188937,30613596,57917422
56876338,82506630,69431293
59720554,30613596,50143678
75664114,56612525,50143678
14444262,56896684,50143678
62017594,56612525,57917422
5293910,14184799,827516
74400299,39871004,22577207
13409734,37087486,57917422
8063732,52329606,13101414
36306982,13101414,52329606
70328193,37087486,50143678
15425916,62658140,92683007
42445074,23179923,57917422
58387169,72532516,44694209
72931226,96064857,41467956
45207955,23179923,50143678
35738244,6137783,6689800
33798955,39871004,69431293
52326086,96393881,827516
60443047,82506630,12720666
47758310,70571400,76992085
46970975,37377607,17669760
69069510,83892699,38643996
54514416,38643996,83892699
21222682,17669760,827516
52139629,92683007,69431293
42805437,827516,57917422
47598456,14303533,57917422
60377618,34049300,69431293
98103465,827516,50143678
70692343,14303533,50143678
16908071,92683007,42262378
66745987,37377607,50143678
90431409,69587578,96597993
94809491,57037822,74348889
60509214,31269035,50143678
67776683,23179923,14184799
15883125,2784206,50143678
89605131,31269035,91145258
42175558,31269035,57917422
83091208,76642427,96597993
83019126,63158851,96597993
78920955,15470863,70950707
69791020,74984903,1930288
66133817,99163983,92951591
93531184,82506630,87117668
29893140,5031776,6137783
79607095,63158851,1256367
57779625,57255505,50143678
5403970,260539,24446168
92687685,92683007,12596090
75425674,26225449,50143678
26565627,57255505,57917422
47135709,88502421,57917422
83817796,58369901,34530340
66886143,88502421,50143678
61828317,86517758,34530340
91377688,92737525,69431293
61384870,36651298,69431293
78231675,77493246,6689800
84506604,37087486,15675208
76595091,57255505,3990179
3269239,88502421,1324938
75702973,22030736,1930288
16502472,91451236,40325386
15887605,34530340,1930288
61300580,1930288,34530340
36410150,87117668,96597993
53213897,55525723,21091630
21912062,26464992,27766045
38836368,32720503,50143678
23590328,5031776,94380318
84696534,36651298,22577207
87074011,92737525,12720666
2671051,915398,57255505
1311721,89979866,77493246
8351955,97094932,1256367
63701330,92951591,57917422
47579201,88746740,42262378
74759105,6137783,3836390
47510722,92951591,50143678
20487185,15675208,15589864
3964689,17669760,94380318
48663001,69907854,94380318
80191321,24454583,90513329
89363952,90513329,94380318
54513756,38135070,69431293
20160433,94380318,50143678
60187361,24454583,50143678
42792304,48765152,6689800
77477145,82506630,34530340
38461718,94380318,57917422
16065221,69587578,31506828
59271609,31506828,69587578
85736229,24454583,57917422
69925554,23394108,69431293
18977240,64372963,6689800
57072029,71808386,69431293
84624821,3245821,96597993
77159303,70950707,50143678
74948257,55525723,1930288
32714996,88365319,50143678
52088906,70950707,57917422
60888954,88365319,57917422
30310717,63688720,11621956
7666874,72532516,82470622
50494803,76642427,20569419
9831100,52329606,50143678
76207861,23179923,6689800
54850175,86517758,62658140
54278505,6137783,57917422
48177211,69587578,6990451
9367745,6137783,50143678
54546300,7176063,92489367
76056464,34634417,42943451
71143218,11744320,15675208
79888527,30613596,6689800
95753185,99163983,88502421
25651778,88502421,99163983
8158267,58259842,57255505
49350777,20321220,827516
75287683,63688720,95812891
27533034,40785767,64978894
71611647,74984903,69431293
45389550,99613788,69431293
19247404,32720503,77493246
57559268,97094932,69431293
92772532,69587578,7748076
50017634,13101414,50143678
93982793,13101414,57917422
63634750,55525723,7748076
51388464,92951591,83892699
16278459,89979866,50143678
91967691,74984903,42262378
93186697,58193590,50143678
20693072,23667446,27450463
46453868,56896684,51421028
67903508,69907854,6689800
37115580,66624109,36651298
93490371,92683007,1930288
31914597,83543881,34530340
60591577,88502421,77493246
44210624,6689800,57917422
89755055,24454583,14760116
71806758,6689800,50143678
33859253,70571400,6689800
97139619,31213960,11621956
75362293,89911077,27450463
82678385,14760116,94380318
78680108,85287137,57917422
40376044,3245821,69431293
92982438,40765470,23179923
42629425,85287137,50143678
54982279,71808386,96597993
86230128,827516,95812891
62500465,95812891,827516
85039462,60129317,24446168
30546808,56612525,24454583
61765176,24454583,56612525
82535392,87117668,2244699
40544217,2244699,87117668
67105444,74984903,12596090
91196753,22030736,22577207
13468385,34530340,69431293
27810374,28071448,22346219
98605524,88502421,15589864
74757724,15470863,14184799
63273431,96064857,24446168
80448638,26464992,7748076
94826728,11744320,827516
18788804,40765470,14760116
98308181,40785767,22577207
39166549,40325386,3990179
77685230,7176063,13101414
61789459,34530340,12720666
44801281,40325386,57917422
43393915,36651298,69675
76310805,69675,36651298
30037656,22030736,69431293
76599776,40325386,50143678
53505296,1930288,74348889
65925822,68565037,16563159
51483180,69587578,69431293
84564832,96064857,40324616
76738466,86028910,17669760
63106836,31269035,14760116
36650475,63158851,22577207
93625642,7176063,88191995
69256465,15675208,57917422
46744715,38643996,50143678
72913739,15675208,50143678
3764043,86028910,50143678
98734982,55525723,42262378
59002902,34049300,1256367
49272639,26464992,39965026
82669309,60129317,44694209
3302241,63158851,42262378
97913953,84584975,50143678
37082455,84584975,57917422
83447299,3530534,14184799
6466946,83892699,2784206
79889873,38135070,69675
37743024,7176063,14184799
97564009,76642427,69431293
44605738,827516,81867495
9906921,81867495,827516
46723954,15470863,6689800
2029818,14303533,14760116
13881809,63688720,50143678
59584274,63688720,57917422
4876071,53848093,1324938
36277193,93309254,15675208
29549483,5031776,6689800
58181841,21587902,14184799
28261037,55525723,12596090
95280408,28071448,50143678
54820098,26464992,42262378
54507128,36651298,96597993
98199483,89911077,12720666
49630227,28071448,57917422
23501494,14184799,57917422
41578921,3245821,41467956
87674324,53848093,50143678
97833560,26464992,69431293
22763977,14184799,50143678
54786382,88502421,83892699
98641407,12829035,96064857
57417569,23667446,69431293
28864504,23667446,22577207
88921985,23667446,12720666
71479817,12829035,1930288
76503462,90362966,57917422
65448278,57255505,14760116
94250687,90362966,50143678
6480006,89911077,42262378
35415361,2244699,34530340
56807286,55525723,39965026
4419796,87117668,69431293
12384366,62658140,12720666
10168680,96393881,57917422
38230732,13170202,50143678
90808451,85626035,827516
8606687,36651298,77493246
3401683,11744320,24446168
1893531,6689800,69431293
73844858,69431293,6689800
87183571,13101414,12720666
46050156,71808386,83892699
43020944,14760116,40324616
77723179,38135070,26156064
79160000,827516,1930288
69933408,3245821,50143678
66427408,14303533,1930288
83951426,3245821,57917422
42858189,84584975,7748076
69132723,7748076,84584975
89794440,55525723,58259842
92619661,58259842,55525723
91764751,66624109,8606187
59394408,42262378,6689800
80173340,6689800,42262378
17640056,23394108,33301007
73463917,90362966,27450463
53659463,89979866,22577207
7607342,31213960,1930288
73464226,99613788,17669760
6593392,58369901,827516
71945766,27450463,14184799
31572392,74984903,17669760
87510841,37069988,6689800
87343258,13101414,42262378
92314030,89979866,69431293
5078374,31213960,85626035
37575649,57037822,15675208
61995224,92951591,96597993
21265757,7748076,15675208
71866126,74984903,57917422
72082135,99613788,50143678
28549101,24454583,96597993
84215205,99613788,57917422
80398934,74984903,50143678
67449546,97094932,57917422
2019180,97094932,50143678
7788131,23394108,26156064
29256156,22577207,6689800
64939648,6689800,22577207
62633630,81867495,74348889
43398210,89979866,42262378
10313330,22030736,50143678
52858081,66900168,6689800
14210939,22030736,57917422
18569986,53880077,827516
6051251,82506630,70950707
70074288,41467956,15675208
36458208,39871004,94380318
99493414,7176063,97094932
15549679,40325386,42262378
49629716,12829035,14760116
88921821,2244699,14184799
14855581,40785767,50143678
78131909,21587902,34530340
68703766,63688720,56963837
29178232,34530340,1324938
86715028,34530340,17669760
96120338,17669760,34530340
1084562,6137783,1256367
17664220,40785767,17669760
5429342,42943451,57917422
7279030,39965026,6689800
63897429,6689800,39965026
6398496,53880077,2784206
80987791,34530340,57917422
34235974,72532516,17669760
67639241,56612525,40324616
46952736,34530340,50143678
74882555,63158851,57917422
65847873,94380318,1930288
43683158,1930288,94380318
95451040,37069988,15675208
80271003,63158851,50143678
50574748,76642427,50143678
99710003,84584975,42262378
66250037,96393881,89091146
92461884,2784206,96597993
10080529,20569419,92489367
54841576,85626035,94380318
98372235,94380318,85626035
65787683,76642427,1324938
73136579,14303533,27766045
88911647,86028910,12720666
90243690,38643996,22577207
75701703,22577207,15675208
9867848,15675208,22577207
63353892,69587578,24879491
40632456,84584975,69431293
88910812,84584975,22577207
42533280,260539,15675208
22142409,15675208,69431293
89779275,69431293,15675208
36593135,38643996,69431293
72085558,14184799,12596090
54720303,11642027,82529462
29622652,14303533,1256367
56616053,71319208,3836390
47354781,58369901,94380318
91619507,85287137,56621791
60006532,55525723,57917422
85831095,55525723,50143678
19284681,88365319,1930288
70157841,42262378,15675208
50459898,15675208,42262378
48566422,2244699,6689800
64804321,89911077,50143678
76433533,53880077,94380318
38173049,96393881,69431293
5605600,26464992,24879491
97600027,81003429,12596090
25889229,87117668,50143678
10246940,13170202,69431293
42590818,260539,13170202
50477530,13170202,42262378
66562452,15675208,39965026
71045221,39965026,15675208
19863147,87117668,69907854
86133306,69907854,87117668
79416113,48765152,24446168
23696721,52329606,1930288
96918666,26464992,50143678
98178671,14184799,69431293
63981224,66900168,15675208
54672300,88502421,96597993
70873337,26464992,57917422
55219614,62658140,17669760
9910862,90362966,22577207
51402743,23667446,50143678
49007780,39871004,2784206
73133953,23667446,57917422
55426585,36651298,33301007
13677521,41467956,6689800
65681842,6689800,41467956
73305599,13170202,22577207
59021385,88502421,1256367
90596858,71319208,17669760
72712700,96393881,22577207
32426682,64978894,15675208
16211738,23667446,21587902
35017898,85287137,19708012
73260495,53848093,42262378
4161885,13101414,27450463
77244585,15470863,34530340
89701563,58369901,6689800
27772364,84584975,96597993
25657292,58193590,1930288
7653318,2784206,42262378
45601743,92737525,46506354
26958223,15896075,94380318
67357403,15675208,27766045
39520372,76642427,83892699
25075351,22030736,95812891
1651495,13101414,1930288
36396523,15470863,74348889
13763655,34049300,57917422
64359462,69675,6689800
37577322,34049300,50143678
98119710,76642427,81867495
52847302,31269035,22577207
734750,1256367,15675208
43224612,15675208,1256367
18521736,82506630,14184799
23565568,52329606,27450463
81530100,14303533,42262378
55179981,92683007,50143678
22388099,86517758,13101414
7284484,92683007,57917422
6049747,38643996,96597993
74606951,71319208,56896684
37879,71319208,81867495
368689,60129317,40325386
44828902,13170202,1256367
63593398,57255505,22577207
86352411,26464992,14760116
47673235,90362966,1256367
21070489,32720503,69431293
69938154,39871004,15675208
82567400,36651298,50143678
57126020,5031776,74348889
51014206,92737525,57917422
80842603,74984903,95812891
70081830,88502421,42262378
50056122,92737525,50143678
77344073,99613788,95812891
22262261,26225449,42262378
63709660,53880077,6689800
42462225,57255505,42262378
41591275,66624109,6689800
48618674,57255505,69431293
94034310,88502421,69431293
38077776,53848093,96597993
46930835,90362966,26385882
75187543,69675,15675208
64317774,86028910,1930288
71155662,31506828,84584975
2820292,15896075,827516
63985474,57255505,19708012
91693157,1256367,6689800
43804925,6689800,1256367
10863877,17669760,74348889
81127681,6137783,39965026
48424234,92951591,22577207
12639737,71808386,50143678
45583606,11642027,44694209
56231379,74984903,81867495
28330537,23394108,70571400
59992687,6689800,96597993
31949292,70950707,69431293
26239969,60129317,15675208
81386150,58369901,15675208
56936759,38135070,70571400
6201456,70950707,22577207
17569313,70950707,12720666
97916461,63688720,1930288
21691842,34049300,15470863
44313171,88746740,57917422
3839496,90513329,40324616
43289389,57037822,827516
1186944,260539,94380318
66559043,63688720,85626035
61803430,26225449,27450463
94701600,92951591,69431293
38558442,40785767,56896684
82350588,89979866,96597993
29525973,20321220,63740223
27576517,6137783,22577207
21450316,14184799,1930288
76716124,1930288,14184799
4024203,83543881,94380318
30846082,52329606,12720666
26352218,31506828,14976179
22582122,31269035,27450463
33586656,99163983,24446168
65987708,39871004,89979866
62896114,89979866,39871004
39245208,6137783,42262378
34832862,58369901,14184799
83087207,85287137,82470622
74445498,86517758,14184799
7421586,70950707,39965026
1498057,20569419,53848093
87898016,52329606,42262378
86813723,12829035,57917422
34999752,40325386,27766045
95637715,12829035,50143678
43977770,52329606,69431293
99941206,6137783,69431293
83861120,39871004,6689800
88824041,12829035,90513329
18442980,71808386,46506354
58975430,56612525,19708012
34559190,69675,50143678
65713470,90513329,1930288
39660081,85626035,57917422
70343678,85626035,50143678
85885731,21616721,1930288
15449305,57037822,81867495
61077940,1930288,50143678
30652032,71808386,38643996
11439434,40325386,24446168
35901547,21587902,1930288
44059101,85626035,17669760
39735718,99163983,96597993
25044940,85287137,63740223
24452790,69907854,1930288
53798159,58259842,96597993
76460213,92683007,6689800
96939030,17669760,1930288
18517904,58369901,57917422
92195858,60129317,57917422
29346063,60129317,50143678
76876207,58369901,50143678
76377889,86517758,57917422
84635448,88746740,15675208
31821286,11621956,69431293
35459728,20569419,57917422
1095838,74984903,827516
37725224,99613788,827516
53786172,20321220,82470622
77205440,96064857,57917422
93011739,95812891,12596090
2263955,31506828,57917422
91562572,96064857,50143678
12864128,55525723,94380318
22613210,36651298,6689800
73113842,28071448,44694209
21024020,87117668,94380318
81768846,22030736,827516
19050462,77493246,69431293
91857105,69431293,77493246
11781920,53880077,57917422
92638803,5031776,1256367
13857517,53880077,3990179
30501434,53848093,71808386
87004754,64372963,41467956
76973429,63158851,6137783
91410783,77493246,42262378
74457479,40785767,827516
96255297,11744320,12720666
39075306,87117668,70950707
74679644,70950707,87117668
54575684,3530534,1930288
88352591,14303533,34530340
35583723,72532516,88425896
33692130,38135070,6689800
39948463,69587578,2784206
6261988,30613596,39965026
31505119,14760116,69431293
9410929,40785767,88425896
22118981,48765152,69431293
76233084,15470863,1930288
64321183,64372963,12720666
23236788,14760116,42262378
27198831,34634417,6266500
87917962,48765152,42262378
68504494,96064857,58259842
20021060,58259842,96064857
73592792,37069988,81867495
70302136,23179923,39965026
65135577,1256367,57917422
48387839,77493246,41467956
54098294,41467956,77493246
89689964,52329606,34530340
75972911,1256367,50143678
59646580,34634417,57917422
38853229,55525723,827516
52624247,83892699,69431293
43907701,20321220,53880077
8346402,48765152,22577207
83675815,23394108,6689800
38653902,64372963,69431293
92941465,99613788,94380318
73794822,74984903,94380318
52016796,92683007,15675208
58547850,70571400,96597993
46513683,31213960,23667446
23156004,56896684,22577207
18149111,37377607,89140688
31392931,7176063,1256367
55992163,30613596,22577207
59137096,23179923,69431293
30860822,37087486,22577207
34714859,88502421,76642427
71324475,39871004,50143678
25678214,34049300,14184799
37760874,36651298,38643996
4045374,38643996,36651298
80963478,91451236,37892151
49646085,64978894,83892699
16951678,56612525,42262378
43400715,82506630,69907854
52209679,30613596,42262378
80029598,37087486,69431293
34817132,23179923,12720666
57691151,23667446,827516
39716445,23179923,22577207
95223732,5031776,1930288
20286154,82506630,50143678
80292069,37087486,42262378
63759923,82506630,57917422
33334508,34530340,94380318
34729017,11744320,15896075
47198859,48765152,39965026
75627491,56612525,69431293
29669920,92683007,14184799
3197665,21587902,12720666
77749684,21587902,22577207
13422001,11621956,1930288
10226353,37069988,57917422
48679803,76642427,38643996
18341482,69907854,12720666
72232990,69587578,84584975
75052300,87117668,14184799
9700234,11621956,85626035
63212440,11642027,12720666
46465451,21616721,12720666
77986365,22577207,50143678
37687701,71808386,94380318
76876053,22577207,57917422
73250293,69431293,57917422
18715749,260539,57917422
12684449,97094932,13101414
30828462,20321220,19708012
15580448,69431293,50143678
46304779,260539,50143678
93141497,70571400,69431293
51468535,83892699,96597993
5033249,90513329,69431293
51664589,32720503,97510926
3227982,24454583,40324616
76638213,55525723,15675208
16973858,62658140,14184799
80918373,42262378,57917422
79538705,64372963,1256367
80667383,42262378,50143678
38891941,64978894,3836390
22328546,92683007,827516
28514751,83543881,57917422
7785748,7176063,69431293
96561460,83543881,50143678
55745663,93309254,22577207
64121300,40785767,54332099
87874333,23667446,84584975
58526416,39965026,50143678
96614885,83543881,1324938
99750725,39965026,91145258
19337026,39965026,57917422
85196288,83543881,17669760
16243149,80673272,7748076
46476352,95812891,1930288
56595153,26464992,84584975
23855076,69675,77493246
75138512,66900168,57917422
97432942,26464992,15675208
5738763,13101414,34530340
23603119,66900168,50143678
49465848,23667446,15675208
24625848,64978894,50143678
34364734,56896684,1256367
50476572,14303533,24446168
13837193,64978894,57917422
68752529,7176063,12720666
49948611,11744320,1930288
53875792,30613596,1256367
44443323,7176063,22577207
83680323,12829035,94380318
37762625,15896075,50143678
15450918,23394108,76992085
83662239,7748076,24879491
81753167,3245821,38643996
68515102,99163983,69431293
30404305,96064857,14760116
62386418,15896075,1324938
29520866,827516,74348889
90564847,2244699,50143678
38261376,92683007,92489367
68341659,15470863,12720666
59077162,2244699,57917422
18085297,14760116,1930288
89116042,23394108,2784206
92184429,76642427,6689800
99641736,63158851,6689800
92343082,12829035,57255505
78767673,71808386,2784206
973801,85626035,81867495
2575435,57037822,57917422
45889460,7748076,50143678
23082465,7748076,57917422
80589603,57037822,50143678
43441260,21616721,7748076
99958613,81867495,1930288
21081366,60129317,83892699
44481241,1256367,15589864
68163016,31213960,74348889
37933341,92683007,94380318
98019850,99613788,15675208
74646264,39871004,77493246
69675239,57037822,17669760
46835025,37087486,1930288
79741558,5031776,42262378
79261549,66624109,83892699
93105229,22030736,15675208
68479580,71319208,54332099
88556680,7176063,7748076
65684770,41467956,57917422
16173690,23667446,6689800
68149210,56896684,1930288
21754907,97094932,88191995
61526045,86517758,62404529
91241616,27450463,50143678
85953877,5031776,22577207
9742815,87117668,6689800
85818360,74984903,14184799
85513557,915398,19708012
88944378,27450463,1324938
29151429,42943451,15675208
