id,src,trg
45851552,54207718,75776888
4957819,65050341,9561297
70990419,15008910,97816836
23020045,35898631,97816836
27212195,33253402,62050141
91987181,46130374,44779137
85800749,73954761,59113409
17198207,24663510,53188020
53484247,47033341,69790466
54071015,21468006,60600956
57702978,50459676,97816836
21769303,8381899,83744409
29637871,94354664,9561297
97020211,58306286,22139863
476689,85383060,52098569
71628863,47545038,97816836
16673309,81386766,12690532
16649975,88862633,19736665
47450023,59222632,10049865
38998794,87590956,56814718
98794714,63123535,97671951
22884537,53668551,97671951
96938444,78461374,2118961
32546772,54274089,57494240
40551481,68803434,16919351
98769318,26580566,11338012
47903203,5567314,95104359
16874405,68039465,97671951
26715278,87985520,77179721
57524376,32769361,34953699
69339528,33920293,56200145
38333852,27592907,83108835
57935800,21726266,5744713
76592725,1871195,2864336
71411905,6748345,70624349
37085138,88589506,97816836
37009650,45535063,12690532
32982618,7401246,8545640
78736860,47594178,52098569
59469099,44235618,16919351
93686572,87985520,26100630
19122008,50459676,83563044
51003280,94354664,54034329
50726501,32677308,97816836
27100009,10029737,57494240
76764000,38083384,5611692
19977125,19706273,34863302
44869098,96095976,97816836
17181806,61641643,79338430
27914697,32817558,54034329
27841230,67879599,78108656
21815995,81131658,8545640
19515022,52255431,97816836
62845206,51452828,1324938
78744834,1610607,12043707
74592433,65336205,72932041
4440645,36556136,97671951
36058475,66405678,9561297
72480393,83189837,454302
77718598,26580566,76302675
56657148,32997470,9561297
38877733,23369130,97816836
70829915,62478545,1254803
53384401,57478271,11844353
48090392,38083384,9561297
38918542,97267129,4729085
33832440,2913363,90382645
81407672,85238888,84188231
45840822,18310887,51892215
45152841,68419842,34953699
57472580,64789823,60514815
95422311,73698339,97816836
69055263,1605850,29559161
20211753,50362552,44136763
23699009,40838520,69790466
92678349,29756026,19781039
83305030,99925995,11949621
2202595,43386445,11493328
45258392,89727032,8545640
41823579,81321974,79032509
63295041,32063141,42157906
2284948,17679618,37759252
63901015,22630340,46902802
78082313,52254825,97816836
88397235,16144280,55373601
21098077,98301577,95531753
54032592,33352455,70800106
47374860,1871195,70290801
18028418,41135378,97816836
88405497,47005001,81328813
65015292,69676192,88691080
98734912,21900729,52098569
57262722,22630340,14753590
32233119,34031527,36947833
77298032,90779836,98317046
5568530,42157906,55115216
55741496,39531818,70624349
42939128,76618225,92024019
32856750,70742891,69252477
3215116,36838705,88551104
26430916,6594383,97816836
23938684,368215,51892215
78680645,84881488,97816836
84854899,94964533,9561297
98728755,65288616,62958366
73889824,27452315,55115216
75111723,22899514,25012080
10536687,80681134,54106297
38562627,92491169,9561297
49848522,14881685,55373601
92276430,42157906,97816836
47038329,46843037,70290801
12684437,23503942,3536846
28768870,55926023,97816836
13938095,45128143,90820789
8215508,35493767,57494240
56119000,43578593,38260633
22629299,68722006,11844353
63542152,29976756,97816836
73358211,77778592,70290801
36702067,9614370,6653756
26373052,11949621,12914578
19546920,61312301,39867776
42827965,67035731,23153749
34973540,75781552,86264938
1011358,84046576,70624349
89965650,57079924,97816836
4824196,33920293,97816836
88988727,87564939,19600242
35093671,49879252,97816836
25386500,12773238,37377831
62383564,52304708,12914578
94653143,51911930,15469787
27359295,84786069,47877274
20447392,40381077,97816836
29748817,1731584,83108835
50847247,58508123,79430597
76865049,46130374,97816836
96018960,88098609,97816836
16481492,32084533,54034329
85926551,26038106,8322456
68853742,44235618,69515739
36681020,22049770,97816836
90609171,88184972,9561297
47499784,42552046,97816836
15901410,17481608,10049865
65419327,26006334,42186530
33149260,25808805,47877274
61416081,32063141,14881685
49835149,69300290,97816836
28649116,99760516,26749289
63587943,16988167,50332129
99190764,89382318,55115216
13657851,21254969,97816836
50920393,61456296,83558974
24613009,28652768,97816836
1497363,64887661,5611692
82665049,61533765,97816836
36820944,17233429,22225051
4461335,26006334,84808459
52856110,70595095,78069073
14331482,73921236,97816836
48913746,17628528,89161863
73227620,32063141,70222859
96108367,58222903,55115216
92428828,31377374,38260633
36853168,38192549,12914578
73601187,89382318,97816836
27818759,54373387,69790466
95427348,31301504,11844353
8493813,52833572,54106297
82852316,68419842,21789614
66349508,67535776,97816836
2101110,39157020,12690532
15541802,88711297,69915778
90517208,53668551,25249143
84719488,39744783,95148589
18494958,32063141,12495921
20595332,78107946,19600242
21399172,44956257,97816836
71475942,18223631,5611692
49416904,66127186,9004118
66893130,52573179,35856228
23158630,22741525,70624349
33385777,72088656,56623666
83735623,16988167,97816836
63457426,95248489,51892215
59469105,80949118,97816836
96462932,1324590,97816836
50705167,17027701,34095744
5509972,69615778,67694087
26245737,21900729,34953699
34374953,25662574,454302
77360972,67035731,12495921
21778117,62210367,11493328
62314202,25808805,16919351
88934153,80875994,66113699
20723031,3518419,38260633
38475541,379345,454302
58210768,99082718,11493328
15936359,59888,63817267
17875570,86296761,34953699
42767809,39530183,6711281
94924747,94121389,97816836
53619137,1622083,9561297
16816695,52569406,23009596
35203701,31491628,55115216
54880045,68745633,3986231
88943021,29734944,78108656
86449698,70557631,97816836
87632846,49778662,97816836
54819251,98966299,9644485
29916982,76446390,11493328
56967396,80681134,8507793
68744752,31491628,97816836
48495324,75781552,8608864
30201286,67035731,44956257
7277187,19404893,12914578
89788385,53878425,97671951
20522061,34858897,97816836
1803746,94362281,11734636
54114604,31859580,8329720
54607930,56790901,65983472
18675708,29248728,55373601
92899710,9270885,35894425
83907793,52467934,54034329
72988963,65050341,63885911
90105115,98850038,73542085
81888221,71825034,92357700
30893985,84881488,29559161
10016152,23436716,23009596
22406978,86296761,63142166
59284362,8585491,97816836
2172007,19706273,95546516
96730381,52310639,55373601
31259307,49416646,5548426
16296868,62943323,11493328
94049361,54677000,55115216
88732653,76303195,97816836
78652327,87593830,10049865
31297425,45960214,57930044
39424381,20136936,14978236
38631244,62978904,93865033
21287377,65135971,9561297
982326,13635228,67195052
99608419,58508123,83558974
96517119,19706273,83854214
42927922,10566099,69790466
5167852,44280281,97816836
53495051,80687969,70290801
33716116,7171444,19600242
72203368,45700939,55115216
8900156,85401055,70624349
71255035,68803434,97671951
40344587,85995929,12914578
15069673,63123535,97816836
26721783,83903804,56991257
91474381,18051777,97816836
44676172,35399864,11493328
7262225,33145059,97816836
50323348,36286100,97816836
88290569,34883180,97816836
98378881,50459676,97671951
80813147,61456296,79430597
35223125,5567314,86264938
5616486,2618228,9561297
87883994,21900729,68470298
28352059,51452828,17170187
57191708,15221141,62794619
76998103,80875994,97816836
22914415,87466024,97816836
91106258,85238888,42447271
44550903,94948834,19600242
46764094,56784534,1091149
92896008,16370242,87266835
19224773,43642610,70624349
82472857,32084533,68570894
50262845,45212941,97816836
73368895,86763794,97816836
28588435,49543742,57494240
49445406,58554963,23758143
55629265,17135883,5611692
84358970,32817558,55373601
52270691,27452315,73542085
74570512,98085471,5611692
90719024,1863547,69580126
48717130,51874352,97816836
47283679,42374365,39212932
22872069,41474637,10049865
36140607,13120075,22139863
2287541,31491628,5611692
2661829,57463615,70624349
10687108,5387499,55115216
14393776,13913085,8545640
1588033,52689603,97816836
37095276,58075981,5611692
56649591,42383222,52368139
38538376,23758143,97816836
83772215,20230588,19600242
32675376,76853439,54034329
80638907,58749092,13343085
44593935,18532786,37389103
93246190,55618570,70624349
3615962,36581014,19600242
94136591,77728103,95064619
5130875,15004848,97816836
375275,2913363,67206070
77775660,78461374,42186530
86943551,90595008,12495921
84849159,42552046,54034329
56610234,79865447,56544140
65906537,26299532,30708505
28423625,29238722,24387468
26765588,21900729,29559161
24452912,65336205,97816836
41308854,65336205,97816836
53736960,59451446,54151829
57847861,53681046,19600242
88167587,45960214,11803812
8304733,32997470,18810864
50037357,62476239,60514815
2940805,39049688,97816836
25917515,79804026,97816836
60400080,87466024,22225051
1804603,75781552,64372963
59857479,62317458,97816836
51160963,60102865,44685969
98262836,15108023,9561297
9003252,16370242,71439629
69961388,61605420,97816836
51949860,22899514,71267440
28682310,58070616,94323901
83658069,61456296,9561297
15206362,53984863,65174217
58989836,72610599,69790466
97318676,78336738,97816836
61679535,48205207,39908172
55874185,38434493,97816836
49172543,75213072,98410790
31856846,89382318,9561297
95785229,43575313,55373601
11233316,16898721,33252653
14540375,32063141,99079178
1397862,54979071,9561297
78704853,94597189,70859963
29393426,34984877,454302
75697227,77908287,454302
44611613,84271638,78108656
95392053,95248489,69553454
17154084,18223631,97816836
92357644,18960638,97816836
40709864,28416458,97816836
40996254,60339925,42447271
89131648,21900729,17375431
27555711,67035731,48088074
32386658,86296761,51712978
50277137,48205207,83563044
76635397,40983501,97816836
7293818,39887898,97816836
56000172,23799839,10049865
31305054,51874352,56200145
1319866,41780395,55115216
90605206,88515990,97816836
16379829,69300290,97671951
79097526,61797519,83108835
28626446,90221501,20569419
70782403,51657721,38260633
75044079,67035731,97816836
23890475,70640535,36545174
5584593,99239136,55373601
59896320,56455604,6320409
1272420,43575313,97816836
8467156,82059130,35705122
12233594,83903804,48886318
58121973,11533655,97816836
65691942,42908256,97816836
28852039,94121389,49623185
76078515,51818290,70923897
71901169,41474637,18694831
77334078,32997470,97816836
53790146,28923144,43054969
22258402,51597765,69515739
84246665,50779239,55115216
95978469,26580566,11493328
65311833,70742891,56200145
68303100,69036539,97816836
41164009,90660094,12914578
2346175,88098609,62277729
84518487,38073389,12200799
58000836,67035731,54483018
12961434,2853441,47190325
7637942,60693253,97816836
76151297,58215620,97816836
83388457,71252328,57494240
44956464,39157020,82881921
35722950,67035731,99321772
72998617,18223631,29308015
21233871,71926307,11949621
44115912,92823580,24536910
34445365,90660094,63706840
38845555,97729412,8989457
49355318,79865447,55373601
86477431,42473729,67347901
31030779,7778436,69580126
51095907,99760516,52098569
69330474,68208017,97816836
59865259,40062330,45404310
59620269,39924158,46901937
11561593,72684382,97816836
78465713,69516892,97816836
84146652,62484777,97816836
94975645,52569406,70380738
94078228,68745633,55373601
81813648,53878425,97816836
64624511,79684884,97816836
62393555,91424824,55373601
47436132,15084911,98406465
64912124,18437816,70290801
80923000,57388775,55373601
63198705,39773056,96597993
91631069,90934315,454302
75077906,58289944,95455946
31896933,13120075,27795093
90824374,18960638,19600242
13176525,31387311,52098569
55011297,94121389,97671951
93092326,46773691,14243052
52616990,93406335,73717428
58326718,43983640,72932041
81203799,50610628,14753590
67984852,87219839,70624349
76976041,57388775,8329720
4579929,98966299,67081765
75297699,74625810,19600242
5863599,23791983,83854214
59565868,85238888,70859963
24192512,77998190,19600242
25303849,56790901,84199837
1430804,69928602,97816836
25827639,34327746,18399302
82184988,21468006,15876270
80895968,78461374,32190273
26875646,98387642,69622298
80491639,74221546,51892215
99019130,88098609,7234197
90018819,39924158,24116446
71047647,58157799,97816836
19746329,98850038,86415762
2649145,59849044,79430597
80153814,89382318,73135474
99163098,5387499,19600242
34803698,60916355,57494240
9022294,99760516,97816836
97829842,27232176,64625759
63051712,90660094,86264938
52526640,29248728,86326289
6793332,52467934,55373601
8857132,1863547,42447271
5553287,53681046,97816836
22020870,11538299,57494240
41799609,87053679,97816836
82098101,59681359,97816836
99236925,20295040,23024986
16934856,5618190,42447271
27656860,32650218,6360811
